---
http_interactions:
- request:
    method: get
    uri: https://api.payable.com/v1/work_types/7413727327
    body:
      encoding: US-ASCII
      string: ''
    headers:
      User-Agent:
      - Faraday v0.9.2
  response:
    status:
      code: 200
      message: 
    headers:
      connection:
      - close
      content-type:
      - application/json
      transfer-encoding:
      - chunked
      status:
      - 200 OK
      cache-control:
      - max-age=0, private, must-revalidate
      vary:
      - Accept-Encoding
      strict-transport-security:
      - max-age=31536000
      x-payable-api-version:
      - '2016-05-16'
      x-request-id:
      - 816502d1-d690-4a3a-b5c5-d612865a4f22
      x-ua-compatible:
      - IE=Edge,chrome=1
      etag:
      - '"6a98b644644a34fd7c428b3755efb0c6"'
      x-runtime:
      - '0.016189'
      date:
      - Wed, 02 Nov 2016 21:08:58 GMT
      x-powered-by:
      - Phusion Passenger
      server:
      - nginx + Phusion Passenger
      access-control-allow-credentials:
      - 'true'
      x-content-type-options:
      - nosniff
      x-frame-options:
      - SAMEORIGIN
      x-xss-protection:
      - 1; mode=block
      via:
      - 1.1 vegur
    body:
      encoding: ASCII-8BIT
      string: '{"id":7413727327,"name":"Hours","quantity_measure":"time","created_at":"2016-11-02T16:05:03Z","updated_at":"2016-11-02T16:05:03Z"}'
    http_version: 
  recorded_at: Wed, 02 Nov 2016 21:08:58 GMT
- request:
    method: get
    uri: https://api.payable.com/v1/work_types/4167373472
    body:
      encoding: US-ASCII
      string: ''
    headers:
      User-Agent:
      - Faraday v0.9.2
  response:
    status:
      code: 200
      message: 
    headers:
      connection:
      - close
      content-type:
      - application/json
      transfer-encoding:
      - chunked
      status:
      - 200 OK
      cache-control:
      - max-age=0, private, must-revalidate
      vary:
      - Accept-Encoding
      strict-transport-security:
      - max-age=31536000
      x-payable-api-version:
      - '2016-05-16'
      x-request-id:
      - 7cde43c3-ed55-48d3-8410-917b1fe346cc
      x-ua-compatible:
      - IE=Edge,chrome=1
      etag:
      - '"3606c0923f97eaa7bb3666386291dc61"'
      x-runtime:
      - '0.012909'
      date:
      - Wed, 02 Nov 2016 21:08:58 GMT
      x-powered-by:
      - Phusion Passenger
      server:
      - nginx + Phusion Passenger
      access-control-allow-credentials:
      - 'true'
      x-content-type-options:
      - nosniff
      x-frame-options:
      - SAMEORIGIN
      x-xss-protection:
      - 1; mode=block
      via:
      - 1.1 vegur
    body:
      encoding: ASCII-8BIT
      string: '{"id":4167373472,"name":"Units","quantity_measure":"unit","created_at":"2016-11-02T16:05:34Z","updated_at":"2016-11-02T16:05:34Z"}'
    http_version: 
  recorded_at: Wed, 02 Nov 2016 21:08:58 GMT
- request:
    method: get
    uri: https://api.payable.com/v1/work_types/3147377972
    body:
      encoding: US-ASCII
      string: ''
    headers:
      User-Agent:
      - Faraday v0.9.2
  response:
    status:
      code: 200
      message: 
    headers:
      connection:
      - close
      content-type:
      - application/json
      transfer-encoding:
      - chunked
      status:
      - 200 OK
      cache-control:
      - max-age=0, private, must-revalidate
      vary:
      - Accept-Encoding
      strict-transport-security:
      - max-age=31536000
      x-payable-api-version:
      - '2016-05-16'
      x-request-id:
      - 4782152d-ae7e-4d69-b679-b03e803e4107
      x-ua-compatible:
      - IE=Edge,chrome=1
      etag:
      - '"f6a8976aed36163d41670c9bd349560b"'
      x-runtime:
      - '0.015828'
      date:
      - Wed, 02 Nov 2016 21:08:59 GMT
      x-powered-by:
      - Phusion Passenger
      server:
      - nginx + Phusion Passenger
      access-control-allow-credentials:
      - 'true'
      x-content-type-options:
      - nosniff
      x-frame-options:
      - SAMEORIGIN
      x-xss-protection:
      - 1; mode=block
      via:
      - 1.1 vegur
    body:
      encoding: ASCII-8BIT
      string: '{"id":3147377972,"name":"Expenses","quantity_measure":"money","created_at":"2016-11-02T16:05:03Z","updated_at":"2016-11-02T16:05:03Z"}'
    http_version: 
  recorded_at: Wed, 02 Nov 2016 21:08:59 GMT
- request:
    method: get
    uri: https://api.payable.com/v1/work_types/6317677432
    body:
      encoding: US-ASCII
      string: ''
    headers:
      User-Agent:
      - Faraday v0.9.2
  response:
    status:
      code: 200
      message: 
    headers:
      connection:
      - close
      content-type:
      - application/json
      transfer-encoding:
      - chunked
      status:
      - 200 OK
      cache-control:
      - max-age=0, private, must-revalidate
      vary:
      - Accept-Encoding
      strict-transport-security:
      - max-age=31536000
      x-payable-api-version:
      - '2016-05-16'
      x-request-id:
      - 73825ab5-13a2-49e6-ac4e-6a1c8e1795f3
      x-ua-compatible:
      - IE=Edge,chrome=1
      etag:
      - '"563c625cf47f3be91aff6d6d66fc2d79"'
      x-runtime:
      - '0.015155'
      date:
      - Wed, 02 Nov 2016 21:08:59 GMT
      x-powered-by:
      - Phusion Passenger
      server:
      - nginx + Phusion Passenger
      access-control-allow-credentials:
      - 'true'
      x-content-type-options:
      - nosniff
      x-frame-options:
      - SAMEORIGIN
      x-xss-protection:
      - 1; mode=block
      via:
      - 1.1 vegur
    body:
      encoding: ASCII-8BIT
      string: '{"id":6317677432,"name":"Mileage","quantity_measure":"distance","created_at":"2016-11-02T16:05:03Z","updated_at":"2016-11-02T16:05:03Z"}'
    http_version: 
  recorded_at: Wed, 02 Nov 2016 21:08:59 GMT
- request:
    method: get
    uri: https://api.payable.com/v1/work_types?page=1&page_size=2
    body:
      encoding: US-ASCII
      string: ''
    headers:
      User-Agent:
      - Faraday v0.9.2
  response:
    status:
      code: 200
      message: 
    headers:
      connection:
      - close
      content-type:
      - application/json
      transfer-encoding:
      - chunked
      status:
      - 200 OK
      cache-control:
      - max-age=0, private, must-revalidate
      vary:
      - Accept-Encoding
      strict-transport-security:
      - max-age=31536000
      x-payable-api-version:
      - '2016-05-16'
      x-request-id:
      - 0268aaf3-90b2-4d06-9dc2-99c9554c863a
      x-ua-compatible:
      - IE=Edge,chrome=1
      etag:
      - '"86523aff09e2421f012e28217fa57f51"'
      x-runtime:
      - '0.016747'
      date:
      - Wed, 02 Nov 2016 21:08:59 GMT
      x-powered-by:
      - Phusion Passenger
      server:
      - nginx + Phusion Passenger
      access-control-allow-credentials:
      - 'true'
      x-content-type-options:
      - nosniff
      x-frame-options:
      - SAMEORIGIN
      x-xss-protection:
      - 1; mode=block
      via:
      - 1.1 vegur
    body:
      encoding: ASCII-8BIT
      string: '{"page":1,"page_count":2,"page_size":2,"total_count":4,"work_types":[{"id":7413727327,"name":"Hours","quantity_measure":"time","created_at":"2016-11-02T16:05:03Z","updated_at":"2016-11-02T16:05:03Z"},{"id":3147377972,"name":"Expenses","quantity_measure":"money","created_at":"2016-11-02T16:05:03Z","updated_at":"2016-11-02T16:05:03Z"}]}'
    http_version: 
  recorded_at: Wed, 02 Nov 2016 21:08:59 GMT
- request:
    method: get
    uri: https://api.payable.com/v1/work_types?page=2&page_size=2
    body:
      encoding: US-ASCII
      string: ''
    headers:
      User-Agent:
      - Faraday v0.9.2
  response:
    status:
      code: 200
      message: 
    headers:
      connection:
      - close
      content-type:
      - application/json
      transfer-encoding:
      - chunked
      status:
      - 200 OK
      cache-control:
      - max-age=0, private, must-revalidate
      vary:
      - Accept-Encoding
      strict-transport-security:
      - max-age=31536000
      x-payable-api-version:
      - '2016-05-16'
      x-request-id:
      - 779e9c5c-5160-4bf7-a302-4f8f5188120d
      x-ua-compatible:
      - IE=Edge,chrome=1
      etag:
      - '"febaa2eea8e821de826c374872bf1bbc"'
      x-runtime:
      - '0.020979'
      date:
      - Wed, 02 Nov 2016 21:09:00 GMT
      x-powered-by:
      - Phusion Passenger
      server:
      - nginx + Phusion Passenger
      access-control-allow-credentials:
      - 'true'
      x-content-type-options:
      - nosniff
      x-frame-options:
      - SAMEORIGIN
      x-xss-protection:
      - 1; mode=block
      via:
      - 1.1 vegur
    body:
      encoding: ASCII-8BIT
      string: '{"page":2,"page_count":2,"page_size":2,"total_count":4,"work_types":[{"id":6317677432,"name":"Mileage","quantity_measure":"distance","created_at":"2016-11-02T16:05:03Z","updated_at":"2016-11-02T16:05:03Z"},{"id":4167373472,"name":"Units","quantity_measure":"unit","created_at":"2016-11-02T16:05:34Z","updated_at":"2016-11-02T16:05:34Z"}]}'
    http_version: 
  recorded_at: Wed, 02 Nov 2016 21:09:00 GMT
- request:
    method: get
    uri: https://api.payable.com/v1/work_types?page=3&page_size=2
    body:
      encoding: US-ASCII
      string: ''
    headers:
      User-Agent:
      - Faraday v0.9.2
  response:
    status:
      code: 200
      message: 
    headers:
      connection:
      - close
      content-type:
      - application/json
      transfer-encoding:
      - chunked
      status:
      - 200 OK
      cache-control:
      - max-age=0, private, must-revalidate
      vary:
      - Accept-Encoding
      strict-transport-security:
      - max-age=31536000
      x-payable-api-version:
      - '2016-05-16'
      x-request-id:
      - 6439e7b0-2dc8-4069-abe6-606f4b0193f1
      x-ua-compatible:
      - IE=Edge,chrome=1
      etag:
      - '"f23edba2ab41e93574eef2e3e8351ea8"'
      x-runtime:
      - '0.017358'
      date:
      - Wed, 02 Nov 2016 21:09:00 GMT
      x-powered-by:
      - Phusion Passenger
      server:
      - nginx + Phusion Passenger
      access-control-allow-credentials:
      - 'true'
      x-content-type-options:
      - nosniff
      x-frame-options:
      - SAMEORIGIN
      x-xss-protection:
      - 1; mode=block
      via:
      - 1.1 vegur
    body:
      encoding: ASCII-8BIT
      string: '{"page":3,"page_count":2,"page_size":2,"total_count":4,"work_types":[]}'
    http_version: 
  recorded_at: Wed, 02 Nov 2016 21:09:00 GMT
- request:
    method: get
    uri: https://api.payable.com/v1/work_types?page=1&page_size=50
    body:
      encoding: US-ASCII
      string: ''
    headers:
      User-Agent:
      - Faraday v0.9.2
  response:
    status:
      code: 200
      message: 
    headers:
      connection:
      - close
      content-type:
      - application/json
      transfer-encoding:
      - chunked
      status:
      - 200 OK
      cache-control:
      - max-age=0, private, must-revalidate
      vary:
      - Accept-Encoding
      strict-transport-security:
      - max-age=31536000
      x-payable-api-version:
      - '2016-05-16'
      x-request-id:
      - 54207d5e-8b31-4324-ba88-ef5b615d2738
      x-ua-compatible:
      - IE=Edge,chrome=1
      etag:
      - '"ac57c6922803579f02e9ae0b3592916f"'
      x-runtime:
      - '0.016554'
      date:
      - Wed, 02 Nov 2016 21:09:00 GMT
      x-powered-by:
      - Phusion Passenger
      server:
      - nginx + Phusion Passenger
      access-control-allow-credentials:
      - 'true'
      x-content-type-options:
      - nosniff
      x-frame-options:
      - SAMEORIGIN
      x-xss-protection:
      - 1; mode=block
      via:
      - 1.1 vegur
    body:
      encoding: ASCII-8BIT
      string: '{"page":1,"page_count":1,"page_size":50,"total_count":4,"work_types":[{"id":7413727327,"name":"Hours","quantity_measure":"time","created_at":"2016-11-02T16:05:03Z","updated_at":"2016-11-02T16:05:03Z"},{"id":3147377972,"name":"Expenses","quantity_measure":"money","created_at":"2016-11-02T16:05:03Z","updated_at":"2016-11-02T16:05:03Z"},{"id":6317677432,"name":"Mileage","quantity_measure":"distance","created_at":"2016-11-02T16:05:03Z","updated_at":"2016-11-02T16:05:03Z"},{"id":4167373472,"name":"Units","quantity_measure":"unit","created_at":"2016-11-02T16:05:34Z","updated_at":"2016-11-02T16:05:34Z"}]}'
    http_version: 
  recorded_at: Wed, 02 Nov 2016 21:09:00 GMT
- request:
    method: get
    uri: https://api.payable.com/v1/work_types?page=1&page_size=50
    body:
      encoding: US-ASCII
      string: ''
    headers:
      User-Agent:
      - Faraday v0.9.2
  response:
    status:
      code: 200
      message: 
    headers:
      connection:
      - close
      content-type:
      - application/json
      transfer-encoding:
      - chunked
      status:
      - 200 OK
      cache-control:
      - max-age=0, private, must-revalidate
      vary:
      - Accept-Encoding
      strict-transport-security:
      - max-age=31536000
      x-payable-api-version:
      - '2016-05-16'
      x-request-id:
      - 86fa6e45-b5b3-464e-9c01-ffdf8448f627
      x-ua-compatible:
      - IE=Edge,chrome=1
      etag:
      - '"ac57c6922803579f02e9ae0b3592916f"'
      x-runtime:
      - '0.016611'
      date:
      - Wed, 02 Nov 2016 21:09:01 GMT
      x-powered-by:
      - Phusion Passenger
      server:
      - nginx + Phusion Passenger
      access-control-allow-credentials:
      - 'true'
      x-content-type-options:
      - nosniff
      x-frame-options:
      - SAMEORIGIN
      x-xss-protection:
      - 1; mode=block
      via:
      - 1.1 vegur
    body:
      encoding: ASCII-8BIT
      string: '{"page":1,"page_count":1,"page_size":50,"total_count":4,"work_types":[{"id":7413727327,"name":"Hours","quantity_measure":"time","created_at":"2016-11-02T16:05:03Z","updated_at":"2016-11-02T16:05:03Z"},{"id":3147377972,"name":"Expenses","quantity_measure":"money","created_at":"2016-11-02T16:05:03Z","updated_at":"2016-11-02T16:05:03Z"},{"id":6317677432,"name":"Mileage","quantity_measure":"distance","created_at":"2016-11-02T16:05:03Z","updated_at":"2016-11-02T16:05:03Z"},{"id":4167373472,"name":"Units","quantity_measure":"unit","created_at":"2016-11-02T16:05:34Z","updated_at":"2016-11-02T16:05:34Z"}]}'
    http_version: 
  recorded_at: Wed, 02 Nov 2016 21:09:01 GMT
- request:
    method: get
    uri: https://api.payable.com/v1/work_types?page=1&page_size=250
    body:
      encoding: US-ASCII
      string: ''
    headers:
      User-Agent:
      - Faraday v0.9.2
  response:
    status:
      code: 200
      message: 
    headers:
      connection:
      - close
      content-type:
      - application/json
      transfer-encoding:
      - chunked
      status:
      - 200 OK
      cache-control:
      - max-age=0, private, must-revalidate
      vary:
      - Accept-Encoding
      strict-transport-security:
      - max-age=31536000
      x-payable-api-version:
      - '2016-05-16'
      x-request-id:
      - b52934b2-34c7-44ad-80b3-5252e9eaa0ef
      x-ua-compatible:
      - IE=Edge,chrome=1
      etag:
      - '"605db4f61203a03015dfe90600738407"'
      x-runtime:
      - '0.017784'
      date:
      - Wed, 02 Nov 2016 21:09:01 GMT
      x-powered-by:
      - Phusion Passenger
      server:
      - nginx + Phusion Passenger
      access-control-allow-credentials:
      - 'true'
      x-content-type-options:
      - nosniff
      x-frame-options:
      - SAMEORIGIN
      x-xss-protection:
      - 1; mode=block
      via:
      - 1.1 vegur
    body:
      encoding: ASCII-8BIT
      string: '{"page":1,"page_count":1,"page_size":250,"total_count":4,"work_types":[{"id":7413727327,"name":"Hours","quantity_measure":"time","created_at":"2016-11-02T16:05:03Z","updated_at":"2016-11-02T16:05:03Z"},{"id":3147377972,"name":"Expenses","quantity_measure":"money","created_at":"2016-11-02T16:05:03Z","updated_at":"2016-11-02T16:05:03Z"},{"id":6317677432,"name":"Mileage","quantity_measure":"distance","created_at":"2016-11-02T16:05:03Z","updated_at":"2016-11-02T16:05:03Z"},{"id":4167373472,"name":"Units","quantity_measure":"unit","created_at":"2016-11-02T16:05:34Z","updated_at":"2016-11-02T16:05:34Z"}]}'
    http_version: 
  recorded_at: Wed, 02 Nov 2016 21:09:01 GMT
recorded_with: VCR 3.0.3
